%YAML 1.1
%TAG !u! tag:unity3d.com,2011:
--- !u!74 &7400000
AnimationClip:
  m_ObjectHideFlags: 0
  m_CorrespondingSourceObject: {fileID: 0}
  m_PrefabInstance: {fileID: 0}
  m_PrefabAsset: {fileID: 0}
  m_Name: Fuse
  serializedVersion: 7
  m_Legacy: 0
  m_Compressed: 0
  m_UseHighQualityCurve: 1
  m_RotationCurves: []
  m_CompressedRotationCurves: []
  m_EulerCurves: []
  m_PositionCurves: []
  m_ScaleCurves: []
  m_FloatCurves: []
  m_PPtrCurves:
  - serializedVersion: 2
    curve:
    - time: 0
      value: {fileID: -720391726, guid: 4d91e7f08faa8614c83e287812fd3d2f, type: 3}
    - time: 0.041666668
      value: {fileID: -680321215, guid: 4d91e7f08faa8614c83e287812fd3d2f, type: 3}
    - time: 0.083333336
      value: {fileID: -1406371267, guid: 4d91e7f08faa8614c83e287812fd3d2f, type: 3}
    - time: 0.125
      value: {fileID: -1342939792, guid: 4d91e7f08faa8614c83e287812fd3d2f, type: 3}
    - time: 0.16666667
      value: {fileID: 386651797, guid: 4d91e7f08faa8614c83e287812fd3d2f, type: 3}
    - time: 0.20833333
      value: {fileID: 1009007647, guid: 4d91e7f08faa8614c83e287812fd3d2f, type: 3}
    - time: 0.25
      value: {fileID: -2134839752, guid: 4d91e7f08faa8614c83e287812fd3d2f, type: 3}
    - time: 0.29166666
      value: {fileID: -79361552, guid: 4d91e7f08faa8614c83e287812fd3d2f, type: 3}
    - time: 0.33333334
      value: {fileID: 2019040445, guid: 4d91e7f08faa8614c83e287812fd3d2f, type: 3}
    - time: 0.375
      value: {fileID: -82140794, guid: 4d91e7f08faa8614c83e287812fd3d2f, type: 3}
    - time: 0.41666666
      value: {fileID: 1769900217, guid: 4d91e7f08faa8614c83e287812fd3d2f, type: 3}
    - time: 0.45833334
      value: {fileID: -1735546477, guid: 4d91e7f08faa8614c83e287812fd3d2f, type: 3}
    - time: 0.5
      value: {fileID: 1216946133, guid: 4d91e7f08faa8614c83e287812fd3d2f, type: 3}
    - time: 0.5416667
      value: {fileID: -1328236660, guid: 4d91e7f08faa8614c83e287812fd3d2f, type: 3}
    - time: 0.5833333
      value: {fileID: 837881871, guid: 4d91e7f08faa8614c83e287812fd3d2f, type: 3}
    - time: 0.625
      value: {fileID: -1191057153, guid: 4d91e7f08faa8614c83e287812fd3d2f, type: 3}
    - time: 0.6666667
      value: {fileID: -798939405, guid: 4d91e7f08faa8614c83e287812fd3d2f, type: 3}
    - time: 0.7083333
      value: {fileID: 263427222, guid: 4d91e7f08faa8614c83e287812fd3d2f, type: 3}
    - time: 0.75
      value: {fileID: -185585879, guid: 4d91e7f08faa8614c83e287812fd3d2f, type: 3}
    - time: 0.7916667
      value: {fileID: -1304250751, guid: 4d91e7f08faa8614c83e287812fd3d2f, type: 3}
    - time: 0.8333333
      value: {fileID: -962136738, guid: 4d91e7f08faa8614c83e287812fd3d2f, type: 3}
    - time: 0.875
      value: {fileID: 1696852326, guid: 4d91e7f08faa8614c83e287812fd3d2f, type: 3}
    - time: 0.9166667
      value: {fileID: 715318336, guid: 4d91e7f08faa8614c83e287812fd3d2f, type: 3}
    - time: 0.9583333
      value: {fileID: -273081253, guid: 4d91e7f08faa8614c83e287812fd3d2f, type: 3}
    - time: 1
      value: {fileID: 685155190, guid: 4d91e7f08faa8614c83e287812fd3d2f, type: 3}
    - time: 1.0416666
      value: {fileID: 775743468, guid: 4d91e7f08faa8614c83e287812fd3d2f, type: 3}
    - time: 1.0833334
      value: {fileID: 1566228036, guid: 4d91e7f08faa8614c83e287812fd3d2f, type: 3}
    - time: 1.125
      value: {fileID: -10653569, guid: 4d91e7f08faa8614c83e287812fd3d2f, type: 3}
    - time: 1.1666666
      value: {fileID: 1712038435, guid: 4d91e7f08faa8614c83e287812fd3d2f, type: 3}
    - time: 1.2083334
      value: {fileID: -854060248, guid: 4d91e7f08faa8614c83e287812fd3d2f, type: 3}
    - time: 1.25
      value: {fileID: -1339929463, guid: 4d91e7f08faa8614c83e287812fd3d2f, type: 3}
    - time: 1.2916666
      value: {fileID: 2079108200, guid: 4d91e7f08faa8614c83e287812fd3d2f, type: 3}
    - time: 1.3333334
      value: {fileID: -54936758, guid: 4d91e7f08faa8614c83e287812fd3d2f, type: 3}
    - time: 1.375
      value: {fileID: -1786262739, guid: 4d91e7f08faa8614c83e287812fd3d2f, type: 3}
    - time: 1.4166666
      value: {fileID: 1783629761, guid: 4d91e7f08faa8614c83e287812fd3d2f, type: 3}
    - time: 1.4583334
      value: {fileID: 1518365223, guid: 4d91e7f08faa8614c83e287812fd3d2f, type: 3}
    - time: 1.5
      value: {fileID: 1827062147, guid: 4d91e7f08faa8614c83e287812fd3d2f, type: 3}
    - time: 1.5416666
      value: {fileID: -374742041, guid: 4d91e7f08faa8614c83e287812fd3d2f, type: 3}
    - time: 1.5833334
      value: {fileID: 342901925, guid: 4d91e7f08faa8614c83e287812fd3d2f, type: 3}
    - time: 1.625
      value: {fileID: -1546377252, guid: 4d91e7f08faa8614c83e287812fd3d2f, type: 3}
    - time: 1.6666666
      value: {fileID: -244573986, guid: 4d91e7f08faa8614c83e287812fd3d2f, type: 3}
    - time: 1.7083334
      value: {fileID: 985721938, guid: 4d91e7f08faa8614c83e287812fd3d2f, type: 3}
    - time: 1.75
      value: {fileID: -1126715306, guid: 4d91e7f08faa8614c83e287812fd3d2f, type: 3}
    - time: 1.7916666
      value: {fileID: 215290483, guid: 4d91e7f08faa8614c83e287812fd3d2f, type: 3}
    - time: 1.8333334
      value: {fileID: 1924730025, guid: 4d91e7f08faa8614c83e287812fd3d2f, type: 3}
    - time: 1.875
      value: {fileID: 1465318517, guid: 4d91e7f08faa8614c83e287812fd3d2f, type: 3}
    - time: 1.9166666
      value: {fileID: 4655804, guid: 4d91e7f08faa8614c83e287812fd3d2f, type: 3}
    - time: 1.9583334
      value: {fileID: -707916999, guid: 4d91e7f08faa8614c83e287812fd3d2f, type: 3}
    - time: 2
      value: {fileID: 1527852835, guid: 4d91e7f08faa8614c83e287812fd3d2f, type: 3}
    - time: 2.0416667
      value: {fileID: 10064854, guid: 4d91e7f08faa8614c83e287812fd3d2f, type: 3}
    - time: 2.0833333
      value: {fileID: -1928816849, guid: 4d91e7f08faa8614c83e287812fd3d2f, type: 3}
    - time: 2.125
      value: {fileID: 1463562590, guid: 4d91e7f08faa8614c83e287812fd3d2f, type: 3}
    - time: 2.1666667
      value: {fileID: 1786337463, guid: 4d91e7f08faa8614c83e287812fd3d2f, type: 3}
    - time: 2.2083333
      value: {fileID: -1462612721, guid: 4d91e7f08faa8614c83e287812fd3d2f, type: 3}
    - time: 2.25
      value: {fileID: -1452101833, guid: 4d91e7f08faa8614c83e287812fd3d2f, type: 3}
    - time: 2.2916667
      value: {fileID: -982581235, guid: 4d91e7f08faa8614c83e287812fd3d2f, type: 3}
    - time: 2.3333333
      value: {fileID: 1112786533, guid: 4d91e7f08faa8614c83e287812fd3d2f, type: 3}
    - time: 2.375
      value: {fileID: 144877495, guid: 4d91e7f08faa8614c83e287812fd3d2f, type: 3}
    - time: 2.4166667
      value: {fileID: 337414488, guid: 4d91e7f08faa8614c83e287812fd3d2f, type: 3}
    - time: 2.4583333
      value: {fileID: 858431338, guid: 4d91e7f08faa8614c83e287812fd3d2f, type: 3}
    - time: 2.5
      value: {fileID: 871995210, guid: 4d91e7f08faa8614c83e287812fd3d2f, type: 3}
    - time: 2.5416667
      value: {fileID: 113076375, guid: 4d91e7f08faa8614c83e287812fd3d2f, type: 3}
    - time: 2.5833333
      value: {fileID: 596980815, guid: 4d91e7f08faa8614c83e287812fd3d2f, type: 3}
    - time: 2.625
      value: {fileID: -1059617789, guid: 4d91e7f08faa8614c83e287812fd3d2f, type: 3}
    - time: 2.6666667
      value: {fileID: 1589505072, guid: 4d91e7f08faa8614c83e287812fd3d2f, type: 3}
    - time: 2.7083333
      value: {fileID: 575387226, guid: 4d91e7f08faa8614c83e287812fd3d2f, type: 3}
    - time: 2.75
      value: {fileID: -1073579776, guid: 4d91e7f08faa8614c83e287812fd3d2f, type: 3}
    - time: 2.7916667
      value: {fileID: 1597702287, guid: 4d91e7f08faa8614c83e287812fd3d2f, type: 3}
    - time: 2.8333333
      value: {fileID: -136690218, guid: 4d91e7f08faa8614c83e287812fd3d2f, type: 3}
    - time: 2.875
      value: {fileID: -1460590617, guid: 4d91e7f08faa8614c83e287812fd3d2f, type: 3}
    - time: 2.9166667
      value: {fileID: -1022871924, guid: 4d91e7f08faa8614c83e287812fd3d2f, type: 3}
    - time: 2.9583333
      value: {fileID: 1558059757, guid: 4d91e7f08faa8614c83e287812fd3d2f, type: 3}
    - time: 3
      value: {fileID: -365654986, guid: 4d91e7f08faa8614c83e287812fd3d2f, type: 3}
    - time: 3.0416667
      value: {fileID: -1323818357, guid: 4d91e7f08faa8614c83e287812fd3d2f, type: 3}
    - time: 3.0833333
      value: {fileID: 1213929778, guid: 4d91e7f08faa8614c83e287812fd3d2f, type: 3}
    - time: 3.125
      value: {fileID: 581124546, guid: 4d91e7f08faa8614c83e287812fd3d2f, type: 3}
    - time: 3.1666667
      value: {fileID: -133642963, guid: 4d91e7f08faa8614c83e287812fd3d2f, type: 3}
    - time: 3.2083333
      value: {fileID: -141238759, guid: 4d91e7f08faa8614c83e287812fd3d2f, type: 3}
    - time: 3.25
      value: {fileID: 1179670226, guid: 4d91e7f08faa8614c83e287812fd3d2f, type: 3}
    - time: 3.2916667
      value: {fileID: -1824519689, guid: 4d91e7f08faa8614c83e287812fd3d2f, type: 3}
    - time: 3.3333333
      value: {fileID: -1028127631, guid: 4d91e7f08faa8614c83e287812fd3d2f, type: 3}
    - time: 3.375
      value: {fileID: 1808764536, guid: 4d91e7f08faa8614c83e287812fd3d2f, type: 3}
    - time: 3.4166667
      value: {fileID: 623350345, guid: 4d91e7f08faa8614c83e287812fd3d2f, type: 3}
    - time: 3.4583333
      value: {fileID: -1688090752, guid: 4d91e7f08faa8614c83e287812fd3d2f, type: 3}
    - time: 3.5
      value: {fileID: 1488458676, guid: 4d91e7f08faa8614c83e287812fd3d2f, type: 3}
    - time: 3.5416667
      value: {fileID: 1272421784, guid: 4d91e7f08faa8614c83e287812fd3d2f, type: 3}
    - time: 3.5833333
      value: {fileID: -1203735162, guid: 4d91e7f08faa8614c83e287812fd3d2f, type: 3}
    - time: 3.625
      value: {fileID: 1668794372, guid: 4d91e7f08faa8614c83e287812fd3d2f, type: 3}
    - time: 3.6666667
      value: {fileID: -1301570738, guid: 4d91e7f08faa8614c83e287812fd3d2f, type: 3}
    - time: 3.7083333
      value: {fileID: -1775774831, guid: 4d91e7f08faa8614c83e287812fd3d2f, type: 3}
    - time: 3.75
      value: {fileID: -1936948776, guid: 4d91e7f08faa8614c83e287812fd3d2f, type: 3}
    - time: 3.7916667
      value: {fileID: 658500446, guid: 4d91e7f08faa8614c83e287812fd3d2f, type: 3}
    - time: 3.8333333
      value: {fileID: -88888427, guid: 4d91e7f08faa8614c83e287812fd3d2f, type: 3}
    - time: 3.875
      value: {fileID: -104532505, guid: 4d91e7f08faa8614c83e287812fd3d2f, type: 3}
    - time: 3.9166667
      value: {fileID: 928808741, guid: 4d91e7f08faa8614c83e287812fd3d2f, type: 3}
    - time: 3.9583333
      value: {fileID: 1333605544, guid: 4d91e7f08faa8614c83e287812fd3d2f, type: 3}
    - time: 4
      value: {fileID: 968945677, guid: 4d91e7f08faa8614c83e287812fd3d2f, type: 3}
    - time: 4.0416665
      value: {fileID: -1833888646, guid: 4d91e7f08faa8614c83e287812fd3d2f, type: 3}
    - time: 4.0833335
      value: {fileID: -634820061, guid: 4d91e7f08faa8614c83e287812fd3d2f, type: 3}
    - time: 4.125
      value: {fileID: 1231627176, guid: 4d91e7f08faa8614c83e287812fd3d2f, type: 3}
    - time: 4.1666665
      value: {fileID: 97350208, guid: 4d91e7f08faa8614c83e287812fd3d2f, type: 3}
    - time: 4.2083335
      value: {fileID: 617085872, guid: 4d91e7f08faa8614c83e287812fd3d2f, type: 3}
    - time: 4.25
      value: {fileID: -881071429, guid: 4d91e7f08faa8614c83e287812fd3d2f, type: 3}
    - time: 4.2916665
      value: {fileID: 658880886, guid: 4d91e7f08faa8614c83e287812fd3d2f, type: 3}
    - time: 4.3333335
      value: {fileID: -1216858383, guid: 4d91e7f08faa8614c83e287812fd3d2f, type: 3}
    - time: 4.375
      value: {fileID: 176557162, guid: 4d91e7f08faa8614c83e287812fd3d2f, type: 3}
    - time: 4.4166665
      value: {fileID: 174797124, guid: 4d91e7f08faa8614c83e287812fd3d2f, type: 3}
    - time: 4.4583335
      value: {fileID: -1704546641, guid: 4d91e7f08faa8614c83e287812fd3d2f, type: 3}
    - time: 4.5
      value: {fileID: -1870585550, guid: 4d91e7f08faa8614c83e287812fd3d2f, type: 3}
    attribute: m_Sprite
    path: 
    classID: 114
    script: {fileID: 11500000, guid: fe87c0e1cc204ed48ad3b37840f39efc, type: 3}
    flags: 2
  m_SampleRate: 24
  m_WrapMode: 0
  m_Bounds:
    m_Center: {x: 0, y: 0, z: 0}
    m_Extent: {x: 0, y: 0, z: 0}
  m_ClipBindingConstant:
    genericBindings:
    - serializedVersion: 2
      path: 0
      attribute: 2015549526
      script: {fileID: 11500000, guid: fe87c0e1cc204ed48ad3b37840f39efc, type: 3}
      typeID: 114
      customType: 0
      isPPtrCurve: 1
      isIntCurve: 0
      isSerializeReferenceCurve: 0
    pptrCurveMapping:
    - {fileID: -720391726, guid: 4d91e7f08faa8614c83e287812fd3d2f, type: 3}
    - {fileID: -680321215, guid: 4d91e7f08faa8614c83e287812fd3d2f, type: 3}
    - {fileID: -1406371267, guid: 4d91e7f08faa8614c83e287812fd3d2f, type: 3}
    - {fileID: -1342939792, guid: 4d91e7f08faa8614c83e287812fd3d2f, type: 3}
    - {fileID: 386651797, guid: 4d91e7f08faa8614c83e287812fd3d2f, type: 3}
    - {fileID: 1009007647, guid: 4d91e7f08faa8614c83e287812fd3d2f, type: 3}
    - {fileID: -2134839752, guid: 4d91e7f08faa8614c83e287812fd3d2f, type: 3}
    - {fileID: -79361552, guid: 4d91e7f08faa8614c83e287812fd3d2f, type: 3}
    - {fileID: 2019040445, guid: 4d91e7f08faa8614c83e287812fd3d2f, type: 3}
    - {fileID: -82140794, guid: 4d91e7f08faa8614c83e287812fd3d2f, type: 3}
    - {fileID: 1769900217, guid: 4d91e7f08faa8614c83e287812fd3d2f, type: 3}
    - {fileID: -1735546477, guid: 4d91e7f08faa8614c83e287812fd3d2f, type: 3}
    - {fileID: 1216946133, guid: 4d91e7f08faa8614c83e287812fd3d2f, type: 3}
    - {fileID: -1328236660, guid: 4d91e7f08faa8614c83e287812fd3d2f, type: 3}
    - {fileID: 837881871, guid: 4d91e7f08faa8614c83e287812fd3d2f, type: 3}
    - {fileID: -1191057153, guid: 4d91e7f08faa8614c83e287812fd3d2f, type: 3}
    - {fileID: -798939405, guid: 4d91e7f08faa8614c83e287812fd3d2f, type: 3}
    - {fileID: 263427222, guid: 4d91e7f08faa8614c83e287812fd3d2f, type: 3}
    - {fileID: -185585879, guid: 4d91e7f08faa8614c83e287812fd3d2f, type: 3}
    - {fileID: -1304250751, guid: 4d91e7f08faa8614c83e287812fd3d2f, type: 3}
    - {fileID: -962136738, guid: 4d91e7f08faa8614c83e287812fd3d2f, type: 3}
    - {fileID: 1696852326, guid: 4d91e7f08faa8614c83e287812fd3d2f, type: 3}
    - {fileID: 715318336, guid: 4d91e7f08faa8614c83e287812fd3d2f, type: 3}
    - {fileID: -273081253, guid: 4d91e7f08faa8614c83e287812fd3d2f, type: 3}
    - {fileID: 685155190, guid: 4d91e7f08faa8614c83e287812fd3d2f, type: 3}
    - {fileID: 775743468, guid: 4d91e7f08faa8614c83e287812fd3d2f, type: 3}
    - {fileID: 1566228036, guid: 4d91e7f08faa8614c83e287812fd3d2f, type: 3}
    - {fileID: -10653569, guid: 4d91e7f08faa8614c83e287812fd3d2f, type: 3}
    - {fileID: 1712038435, guid: 4d91e7f08faa8614c83e287812fd3d2f, type: 3}
    - {fileID: -854060248, guid: 4d91e7f08faa8614c83e287812fd3d2f, type: 3}
    - {fileID: -1339929463, guid: 4d91e7f08faa8614c83e287812fd3d2f, type: 3}
    - {fileID: 2079108200, guid: 4d91e7f08faa8614c83e287812fd3d2f, type: 3}
    - {fileID: -54936758, guid: 4d91e7f08faa8614c83e287812fd3d2f, type: 3}
    - {fileID: -1786262739, guid: 4d91e7f08faa8614c83e287812fd3d2f, type: 3}
    - {fileID: 1783629761, guid: 4d91e7f08faa8614c83e287812fd3d2f, type: 3}
    - {fileID: 1518365223, guid: 4d91e7f08faa8614c83e287812fd3d2f, type: 3}
    - {fileID: 1827062147, guid: 4d91e7f08faa8614c83e287812fd3d2f, type: 3}
    - {fileID: -374742041, guid: 4d91e7f08faa8614c83e287812fd3d2f, type: 3}
    - {fileID: 342901925, guid: 4d91e7f08faa8614c83e287812fd3d2f, type: 3}
    - {fileID: -1546377252, guid: 4d91e7f08faa8614c83e287812fd3d2f, type: 3}
    - {fileID: -244573986, guid: 4d91e7f08faa8614c83e287812fd3d2f, type: 3}
    - {fileID: 985721938, guid: 4d91e7f08faa8614c83e287812fd3d2f, type: 3}
    - {fileID: -1126715306, guid: 4d91e7f08faa8614c83e287812fd3d2f, type: 3}
    - {fileID: 215290483, guid: 4d91e7f08faa8614c83e287812fd3d2f, type: 3}
    - {fileID: 1924730025, guid: 4d91e7f08faa8614c83e287812fd3d2f, type: 3}
    - {fileID: 1465318517, guid: 4d91e7f08faa8614c83e287812fd3d2f, type: 3}
    - {fileID: 4655804, guid: 4d91e7f08faa8614c83e287812fd3d2f, type: 3}
    - {fileID: -707916999, guid: 4d91e7f08faa8614c83e287812fd3d2f, type: 3}
    - {fileID: 1527852835, guid: 4d91e7f08faa8614c83e287812fd3d2f, type: 3}
    - {fileID: 10064854, guid: 4d91e7f08faa8614c83e287812fd3d2f, type: 3}
    - {fileID: -1928816849, guid: 4d91e7f08faa8614c83e287812fd3d2f, type: 3}
    - {fileID: 1463562590, guid: 4d91e7f08faa8614c83e287812fd3d2f, type: 3}
    - {fileID: 1786337463, guid: 4d91e7f08faa8614c83e287812fd3d2f, type: 3}
    - {fileID: -1462612721, guid: 4d91e7f08faa8614c83e287812fd3d2f, type: 3}
    - {fileID: -1452101833, guid: 4d91e7f08faa8614c83e287812fd3d2f, type: 3}
    - {fileID: -982581235, guid: 4d91e7f08faa8614c83e287812fd3d2f, type: 3}
    - {fileID: 1112786533, guid: 4d91e7f08faa8614c83e287812fd3d2f, type: 3}
    - {fileID: 144877495, guid: 4d91e7f08faa8614c83e287812fd3d2f, type: 3}
    - {fileID: 337414488, guid: 4d91e7f08faa8614c83e287812fd3d2f, type: 3}
    - {fileID: 858431338, guid: 4d91e7f08faa8614c83e287812fd3d2f, type: 3}
    - {fileID: 871995210, guid: 4d91e7f08faa8614c83e287812fd3d2f, type: 3}
    - {fileID: 113076375, guid: 4d91e7f08faa8614c83e287812fd3d2f, type: 3}
    - {fileID: 596980815, guid: 4d91e7f08faa8614c83e287812fd3d2f, type: 3}
    - {fileID: -1059617789, guid: 4d91e7f08faa8614c83e287812fd3d2f, type: 3}
    - {fileID: 1589505072, guid: 4d91e7f08faa8614c83e287812fd3d2f, type: 3}
    - {fileID: 575387226, guid: 4d91e7f08faa8614c83e287812fd3d2f, type: 3}
    - {fileID: -1073579776, guid: 4d91e7f08faa8614c83e287812fd3d2f, type: 3}
    - {fileID: 1597702287, guid: 4d91e7f08faa8614c83e287812fd3d2f, type: 3}
    - {fileID: -136690218, guid: 4d91e7f08faa8614c83e287812fd3d2f, type: 3}
    - {fileID: -1460590617, guid: 4d91e7f08faa8614c83e287812fd3d2f, type: 3}
    - {fileID: -1022871924, guid: 4d91e7f08faa8614c83e287812fd3d2f, type: 3}
    - {fileID: 1558059757, guid: 4d91e7f08faa8614c83e287812fd3d2f, type: 3}
    - {fileID: -365654986, guid: 4d91e7f08faa8614c83e287812fd3d2f, type: 3}
    - {fileID: -1323818357, guid: 4d91e7f08faa8614c83e287812fd3d2f, type: 3}
    - {fileID: 1213929778, guid: 4d91e7f08faa8614c83e287812fd3d2f, type: 3}
    - {fileID: 581124546, guid: 4d91e7f08faa8614c83e287812fd3d2f, type: 3}
    - {fileID: -133642963, guid: 4d91e7f08faa8614c83e287812fd3d2f, type: 3}
    - {fileID: -141238759, guid: 4d91e7f08faa8614c83e287812fd3d2f, type: 3}
    - {fileID: 1179670226, guid: 4d91e7f08faa8614c83e287812fd3d2f, type: 3}
    - {fileID: -1824519689, guid: 4d91e7f08faa8614c83e287812fd3d2f, type: 3}
    - {fileID: -1028127631, guid: 4d91e7f08faa8614c83e287812fd3d2f, type: 3}
    - {fileID: 1808764536, guid: 4d91e7f08faa8614c83e287812fd3d2f, type: 3}
    - {fileID: 623350345, guid: 4d91e7f08faa8614c83e287812fd3d2f, type: 3}
    - {fileID: -1688090752, guid: 4d91e7f08faa8614c83e287812fd3d2f, type: 3}
    - {fileID: 1488458676, guid: 4d91e7f08faa8614c83e287812fd3d2f, type: 3}
    - {fileID: 1272421784, guid: 4d91e7f08faa8614c83e287812fd3d2f, type: 3}
    - {fileID: -1203735162, guid: 4d91e7f08faa8614c83e287812fd3d2f, type: 3}
    - {fileID: 1668794372, guid: 4d91e7f08faa8614c83e287812fd3d2f, type: 3}
    - {fileID: -1301570738, guid: 4d91e7f08faa8614c83e287812fd3d2f, type: 3}
    - {fileID: -1775774831, guid: 4d91e7f08faa8614c83e287812fd3d2f, type: 3}
    - {fileID: -1936948776, guid: 4d91e7f08faa8614c83e287812fd3d2f, type: 3}
    - {fileID: 658500446, guid: 4d91e7f08faa8614c83e287812fd3d2f, type: 3}
    - {fileID: -88888427, guid: 4d91e7f08faa8614c83e287812fd3d2f, type: 3}
    - {fileID: -104532505, guid: 4d91e7f08faa8614c83e287812fd3d2f, type: 3}
    - {fileID: 928808741, guid: 4d91e7f08faa8614c83e287812fd3d2f, type: 3}
    - {fileID: 1333605544, guid: 4d91e7f08faa8614c83e287812fd3d2f, type: 3}
    - {fileID: 968945677, guid: 4d91e7f08faa8614c83e287812fd3d2f, type: 3}
    - {fileID: -1833888646, guid: 4d91e7f08faa8614c83e287812fd3d2f, type: 3}
    - {fileID: -634820061, guid: 4d91e7f08faa8614c83e287812fd3d2f, type: 3}
    - {fileID: 1231627176, guid: 4d91e7f08faa8614c83e287812fd3d2f, type: 3}
    - {fileID: 97350208, guid: 4d91e7f08faa8614c83e287812fd3d2f, type: 3}
    - {fileID: 617085872, guid: 4d91e7f08faa8614c83e287812fd3d2f, type: 3}
    - {fileID: -881071429, guid: 4d91e7f08faa8614c83e287812fd3d2f, type: 3}
    - {fileID: 658880886, guid: 4d91e7f08faa8614c83e287812fd3d2f, type: 3}
    - {fileID: -1216858383, guid: 4d91e7f08faa8614c83e287812fd3d2f, type: 3}
    - {fileID: 176557162, guid: 4d91e7f08faa8614c83e287812fd3d2f, type: 3}
    - {fileID: 174797124, guid: 4d91e7f08faa8614c83e287812fd3d2f, type: 3}
    - {fileID: -1704546641, guid: 4d91e7f08faa8614c83e287812fd3d2f, type: 3}
    - {fileID: -1870585550, guid: 4d91e7f08faa8614c83e287812fd3d2f, type: 3}
  m_AnimationClipSettings:
    serializedVersion: 2
    m_AdditiveReferencePoseClip: {fileID: 0}
    m_AdditiveReferencePoseTime: 0
    m_StartTime: 0
    m_StopTime: 4.5416665
    m_OrientationOffsetY: 0
    m_Level: 0
    m_CycleOffset: 0
    m_HasAdditiveReferencePose: 0
    m_LoopTime: 1
    m_LoopBlend: 0
    m_LoopBlendOrientation: 0
    m_LoopBlendPositionY: 0
    m_LoopBlendPositionXZ: 0
    m_KeepOriginalOrientation: 0
    m_KeepOriginalPositionY: 1
    m_KeepOriginalPositionXZ: 0
    m_HeightFromFeet: 0
    m_Mirror: 0
  m_EditorCurves: []
  m_EulerEditorCurves: []
  m_HasGenericRootTransform: 0
  m_HasMotionFloatCurves: 0
  m_Events: []
