%YAML 1.1
%TAG !u! tag:unity3d.com,2011:
--- !u!1 &7039367633759653466
GameObject:
  m_ObjectHideFlags: 0
  m_CorrespondingSourceObject: {fileID: 0}
  m_PrefabInstance: {fileID: 0}
  m_PrefabAsset: {fileID: 0}
  serializedVersion: 6
  m_Component:
  - component: {fileID: 7039367633759653467}
  m_Layer: 0
  m_Name: "3\u865F"
  m_TagString: Untagged
  m_Icon: {fileID: 0}
  m_NavMeshLayer: 0
  m_StaticEditorFlags: 0
  m_IsActive: 1
--- !u!4 &7039367633759653467
Transform:
  m_ObjectHideFlags: 0
  m_CorrespondingSourceObject: {fileID: 0}
  m_PrefabInstance: {fileID: 0}
  m_PrefabAsset: {fileID: 0}
  m_GameObject: {fileID: 7039367633759653466}
  m_LocalRotation: {x: 0, y: 0, z: 0, w: 1}
  m_LocalPosition: {x: 2.8097258, y: 0.28281155, z: 5.08}
  m_LocalScale: {x: 1, y: 1, z: 1}
  m_Children:
  - {fileID: 7039367633741887059}
  - {fileID: 7039367633793650780}
  - {fileID: 7039367635138348986}
  m_Father: {fileID: 0}
  m_RootOrder: 0
  m_LocalEulerAnglesHint: {x: 0, y: 0, z: 0}
--- !u!1001 &7039367633742277843
PrefabInstance:
  m_ObjectHideFlags: 0
  serializedVersion: 2
  m_Modification:
    m_TransformParent: {fileID: 7039367633759653467}
    m_Modifications:
    - target: {fileID: 100000, guid: 1eaa83cfe86be6d42b5dfa6b175ee8d8, type: 3}
      propertyPath: m_Name
      value: "3\u865F 1 "
      objectReference: {fileID: 0}
    - target: {fileID: 400000, guid: 1eaa83cfe86be6d42b5dfa6b175ee8d8, type: 3}
      propertyPath: m_LocalPosition.x
      value: 1.9002743
      objectReference: {fileID: 0}
    - target: {fileID: 400000, guid: 1eaa83cfe86be6d42b5dfa6b175ee8d8, type: 3}
      propertyPath: m_LocalPosition.y
      value: -1.0478115
      objectReference: {fileID: 0}
    - target: {fileID: 400000, guid: 1eaa83cfe86be6d42b5dfa6b175ee8d8, type: 3}
      propertyPath: m_LocalPosition.z
      value: 2.3179607
      objectReference: {fileID: 0}
    - target: {fileID: 400000, guid: 1eaa83cfe86be6d42b5dfa6b175ee8d8, type: 3}
      propertyPath: m_LocalRotation.x
      value: -0
      objectReference: {fileID: 0}
    - target: {fileID: 400000, guid: 1eaa83cfe86be6d42b5dfa6b175ee8d8, type: 3}
      propertyPath: m_LocalRotation.y
      value: -0
      objectReference: {fileID: 0}
    - target: {fileID: 400000, guid: 1eaa83cfe86be6d42b5dfa6b175ee8d8, type: 3}
      propertyPath: m_LocalRotation.z
      value: -0
      objectReference: {fileID: 0}
    - target: {fileID: 400000, guid: 1eaa83cfe86be6d42b5dfa6b175ee8d8, type: 3}
      propertyPath: m_LocalRotation.w
      value: 1
      objectReference: {fileID: 0}
    - target: {fileID: 400000, guid: 1eaa83cfe86be6d42b5dfa6b175ee8d8, type: 3}
      propertyPath: m_RootOrder
      value: 0
      objectReference: {fileID: 0}
    - target: {fileID: 400000, guid: 1eaa83cfe86be6d42b5dfa6b175ee8d8, type: 3}
      propertyPath: m_LocalEulerAnglesHint.x
      value: 0
      objectReference: {fileID: 0}
    - target: {fileID: 400000, guid: 1eaa83cfe86be6d42b5dfa6b175ee8d8, type: 3}
      propertyPath: m_LocalEulerAnglesHint.y
      value: 0
      objectReference: {fileID: 0}
    - target: {fileID: 400000, guid: 1eaa83cfe86be6d42b5dfa6b175ee8d8, type: 3}
      propertyPath: m_LocalEulerAnglesHint.z
      value: 0
      objectReference: {fileID: 0}
    - target: {fileID: 2300000, guid: 1eaa83cfe86be6d42b5dfa6b175ee8d8, type: 3}
      propertyPath: m_Materials.Array.data[0]
      value: 
      objectReference: {fileID: 2100000, guid: 9719ad92e78ab2e4a89060b6b2ea5b02, type: 2}
    m_RemovedComponents: []
  m_SourcePrefab: {fileID: 100100000, guid: 1eaa83cfe86be6d42b5dfa6b175ee8d8, type: 3}
--- !u!4 &7039367633741887059 stripped
Transform:
  m_CorrespondingSourceObject: {fileID: 400000, guid: 1eaa83cfe86be6d42b5dfa6b175ee8d8,
    type: 3}
  m_PrefabInstance: {fileID: 7039367633742277843}
  m_PrefabAsset: {fileID: 0}
--- !u!1001 &7039367633793256156
PrefabInstance:
  m_ObjectHideFlags: 0
  serializedVersion: 2
  m_Modification:
    m_TransformParent: {fileID: 7039367633759653467}
    m_Modifications:
    - target: {fileID: 100000, guid: 1eaa83cfe86be6d42b5dfa6b175ee8d8, type: 3}
      propertyPath: m_Name
      value: "3\u865F 3"
      objectReference: {fileID: 0}
    - target: {fileID: 400000, guid: 1eaa83cfe86be6d42b5dfa6b175ee8d8, type: 3}
      propertyPath: m_LocalPosition.x
      value: -1.974
      objectReference: {fileID: 0}
    - target: {fileID: 400000, guid: 1eaa83cfe86be6d42b5dfa6b175ee8d8, type: 3}
      propertyPath: m_LocalPosition.y
      value: -1.0478115
      objectReference: {fileID: 0}
    - target: {fileID: 400000, guid: 1eaa83cfe86be6d42b5dfa6b175ee8d8, type: 3}
      propertyPath: m_LocalPosition.z
      value: 2.3179607
      objectReference: {fileID: 0}
    - target: {fileID: 400000, guid: 1eaa83cfe86be6d42b5dfa6b175ee8d8, type: 3}
      propertyPath: m_LocalRotation.x
      value: -0
      objectReference: {fileID: 0}
    - target: {fileID: 400000, guid: 1eaa83cfe86be6d42b5dfa6b175ee8d8, type: 3}
      propertyPath: m_LocalRotation.y
      value: -0
      objectReference: {fileID: 0}
    - target: {fileID: 400000, guid: 1eaa83cfe86be6d42b5dfa6b175ee8d8, type: 3}
      propertyPath: m_LocalRotation.z
      value: -0
      objectReference: {fileID: 0}
    - target: {fileID: 400000, guid: 1eaa83cfe86be6d42b5dfa6b175ee8d8, type: 3}
      propertyPath: m_LocalRotation.w
      value: 1
      objectReference: {fileID: 0}
    - target: {fileID: 400000, guid: 1eaa83cfe86be6d42b5dfa6b175ee8d8, type: 3}
      propertyPath: m_RootOrder
      value: 1
      objectReference: {fileID: 0}
    - target: {fileID: 400000, guid: 1eaa83cfe86be6d42b5dfa6b175ee8d8, type: 3}
      propertyPath: m_LocalEulerAnglesHint.x
      value: 0
      objectReference: {fileID: 0}
    - target: {fileID: 400000, guid: 1eaa83cfe86be6d42b5dfa6b175ee8d8, type: 3}
      propertyPath: m_LocalEulerAnglesHint.y
      value: 0
      objectReference: {fileID: 0}
    - target: {fileID: 400000, guid: 1eaa83cfe86be6d42b5dfa6b175ee8d8, type: 3}
      propertyPath: m_LocalEulerAnglesHint.z
      value: 0
      objectReference: {fileID: 0}
    - target: {fileID: 2300000, guid: 1eaa83cfe86be6d42b5dfa6b175ee8d8, type: 3}
      propertyPath: m_Materials.Array.data[0]
      value: 
      objectReference: {fileID: 2100000, guid: ac7960a0c27219443997efb2535c9f77, type: 2}
    m_RemovedComponents: []
  m_SourcePrefab: {fileID: 100100000, guid: 1eaa83cfe86be6d42b5dfa6b175ee8d8, type: 3}
--- !u!4 &7039367633793650780 stripped
Transform:
  m_CorrespondingSourceObject: {fileID: 400000, guid: 1eaa83cfe86be6d42b5dfa6b175ee8d8,
    type: 3}
  m_PrefabInstance: {fileID: 7039367633793256156}
  m_PrefabAsset: {fileID: 0}
--- !u!1001 &7039367635138223418
PrefabInstance:
  m_ObjectHideFlags: 0
  serializedVersion: 2
  m_Modification:
    m_TransformParent: {fileID: 7039367633759653467}
    m_Modifications:
    - target: {fileID: 100000, guid: 1eaa83cfe86be6d42b5dfa6b175ee8d8, type: 3}
      propertyPath: m_Name
      value: "3\u865F 2"
      objectReference: {fileID: 0}
    - target: {fileID: 400000, guid: 1eaa83cfe86be6d42b5dfa6b175ee8d8, type: 3}
      propertyPath: m_LocalPosition.x
      value: 0.5462742
      objectReference: {fileID: 0}
    - target: {fileID: 400000, guid: 1eaa83cfe86be6d42b5dfa6b175ee8d8, type: 3}
      propertyPath: m_LocalPosition.y
      value: -1.0478115
      objectReference: {fileID: 0}
    - target: {fileID: 400000, guid: 1eaa83cfe86be6d42b5dfa6b175ee8d8, type: 3}
      propertyPath: m_LocalPosition.z
      value: 2.3179607
      objectReference: {fileID: 0}
    - target: {fileID: 400000, guid: 1eaa83cfe86be6d42b5dfa6b175ee8d8, type: 3}
      propertyPath: m_LocalRotation.x
      value: -0
      objectReference: {fileID: 0}
    - target: {fileID: 400000, guid: 1eaa83cfe86be6d42b5dfa6b175ee8d8, type: 3}
      propertyPath: m_LocalRotation.y
      value: -0
      objectReference: {fileID: 0}
    - target: {fileID: 400000, guid: 1eaa83cfe86be6d42b5dfa6b175ee8d8, type: 3}
      propertyPath: m_LocalRotation.z
      value: -0
      objectReference: {fileID: 0}
    - target: {fileID: 400000, guid: 1eaa83cfe86be6d42b5dfa6b175ee8d8, type: 3}
      propertyPath: m_LocalRotation.w
      value: 1
      objectReference: {fileID: 0}
    - target: {fileID: 400000, guid: 1eaa83cfe86be6d42b5dfa6b175ee8d8, type: 3}
      propertyPath: m_RootOrder
      value: 2
      objectReference: {fileID: 0}
    - target: {fileID: 400000, guid: 1eaa83cfe86be6d42b5dfa6b175ee8d8, type: 3}
      propertyPath: m_LocalEulerAnglesHint.x
      value: 0
      objectReference: {fileID: 0}
    - target: {fileID: 400000, guid: 1eaa83cfe86be6d42b5dfa6b175ee8d8, type: 3}
      propertyPath: m_LocalEulerAnglesHint.y
      value: 0
      objectReference: {fileID: 0}
    - target: {fileID: 400000, guid: 1eaa83cfe86be6d42b5dfa6b175ee8d8, type: 3}
      propertyPath: m_LocalEulerAnglesHint.z
      value: 0
      objectReference: {fileID: 0}
    - target: {fileID: 2300000, guid: 1eaa83cfe86be6d42b5dfa6b175ee8d8, type: 3}
      propertyPath: m_Materials.Array.data[0]
      value: 
      objectReference: {fileID: 2100000, guid: fad6048671ead59459626af03c53927f, type: 2}
    m_RemovedComponents: []
  m_SourcePrefab: {fileID: 100100000, guid: 1eaa83cfe86be6d42b5dfa6b175ee8d8, type: 3}
--- !u!4 &7039367635138348986 stripped
Transform:
  m_CorrespondingSourceObject: {fileID: 400000, guid: 1eaa83cfe86be6d42b5dfa6b175ee8d8,
    type: 3}
  m_PrefabInstance: {fileID: 7039367635138223418}
  m_PrefabAsset: {fileID: 0}
