%YAML 1.1
%TAG !u! tag:unity3d.com,2011:
--- !u!114 &11400000
MonoBehaviour:
  m_ObjectHideFlags: 0
  m_CorrespondingSourceObject: {fileID: 0}
  m_PrefabInstance: {fileID: 0}
  m_PrefabAsset: {fileID: 0}
  m_GameObject: {fileID: 0}
  m_Enabled: 1
  m_EditorHideFlags: 0
  m_Script: {fileID: 11500000, guid: b7f59e54f2bfd184b9dd451a678d089b, type: 3}
  m_Name: WALK Noise Profile
  m_EditorClassIdentifier: 
  PositionNoise:
  - X:
      Frequency: 0
      Amplitude: 0
      Constant: 0
    Y:
      Frequency: 2.3
      Amplitude: 0.05
      Constant: 1
    Z:
      Frequency: 0
      Amplitude: 0
      Constant: 0
  OrientationNoise:
  - X:
      Frequency: 2.3
      Amplitude: 0.25
      Constant: 1
    Y:
      Frequency: 1.15
      Amplitude: 0.5
      Constant: 1
    Z:
      Frequency: 0
      Amplitude: 0
      Constant: 1
