%YAML 1.1
%TAG !u! tag:unity3d.com,2011:
--- !u!1 &5869235043110999245
GameObject:
  m_ObjectHideFlags: 0
  m_CorrespondingSourceObject: {fileID: 0}
  m_PrefabInstance: {fileID: 0}
  m_PrefabAsset: {fileID: 0}
  serializedVersion: 6
  m_Component:
  - component: {fileID: 5869235043110504685}
  - component: {fileID: 5869235043109701837}
  - component: {fileID: 5869235043108735501}
  m_Layer: 0
  m_Name: "\u7DA0\u6C34\u8F38\u51FAmax"
  m_TagString: Untagged
  m_Icon: {fileID: 0}
  m_NavMeshLayer: 0
  m_StaticEditorFlags: 0
  m_IsActive: 1
--- !u!4 &5869235043110504685
Transform:
  m_ObjectHideFlags: 0
  m_CorrespondingSourceObject: {fileID: 0}
  m_PrefabInstance: {fileID: 0}
  m_PrefabAsset: {fileID: 0}
  m_GameObject: {fileID: 5869235043110999245}
  m_LocalRotation: {x: -0, y: -0, z: -0, w: 1}
  m_LocalPosition: {x: 3.7507644, y: 1.0958459, z: 2.8036978}
  m_LocalScale: {x: 1, y: 1, z: 1}
  m_ConstrainProportionsScale: 0
  m_Children: []
  m_Father: {fileID: 0}
  m_RootOrder: 0
  m_LocalEulerAnglesHint: {x: 0, y: 0, z: 0}
--- !u!33 &5869235043109701837
MeshFilter:
  m_ObjectHideFlags: 0
  m_CorrespondingSourceObject: {fileID: 0}
  m_PrefabInstance: {fileID: 0}
  m_PrefabAsset: {fileID: 0}
  m_GameObject: {fileID: 5869235043110999245}
  m_Mesh: {fileID: 4300000, guid: 6c342ef886a607b40bd234d9956c3368, type: 3}
--- !u!23 &5869235043108735501
MeshRenderer:
  m_ObjectHideFlags: 0
  m_CorrespondingSourceObject: {fileID: 0}
  m_PrefabInstance: {fileID: 0}
  m_PrefabAsset: {fileID: 0}
  m_GameObject: {fileID: 5869235043110999245}
  m_Enabled: 1
  m_CastShadows: 1
  m_ReceiveShadows: 1
  m_DynamicOccludee: 1
  m_StaticShadowCaster: 0
  m_MotionVectors: 1
  m_LightProbeUsage: 1
  m_ReflectionProbeUsage: 1
  m_RayTracingMode: 2
  m_RayTraceProcedural: 0
  m_RenderingLayerMask: 1
  m_RendererPriority: 0
  m_Materials:
  - {fileID: 2100000, guid: a04616e175471f34496cf9ba56941206, type: 2}
  - {fileID: 2100000, guid: 74534afca2e06a0429400a42650dd7db, type: 2}
  - {fileID: 2100000, guid: 86072ee9dc909294e9aca164e27c7bf5, type: 2}
  - {fileID: 2100000, guid: ab6e33a3e0d76c744ae7f6609f8ac39a, type: 2}
  - {fileID: 2100000, guid: 57d238ca79bb37b449e3482b4967544d, type: 2}
  - {fileID: 2100000, guid: c5c066dd9c14d2b439b3afca7c4cd502, type: 2}
  - {fileID: 2100000, guid: 789f856ea497f0e4e859b7315515ebe9, type: 2}
  - {fileID: 2100000, guid: 29684d1d9bb0c5c489390a30a29f99a9, type: 2}
  - {fileID: 2100000, guid: 6528660fb19fd1d458e6ab32750ddf80, type: 2}
  - {fileID: 2100000, guid: a94f7c61dac49604686a0098c6f73ff6, type: 2}
  - {fileID: 2100000, guid: b49bdfd9cc5abf44e837eead6bb98a4d, type: 2}
  m_StaticBatchInfo:
    firstSubMesh: 0
    subMeshCount: 0
  m_StaticBatchRoot: {fileID: 0}
  m_ProbeAnchor: {fileID: 0}
  m_LightProbeVolumeOverride: {fileID: 0}
  m_ScaleInLightmap: 1
  m_ReceiveGI: 1
  m_PreserveUVs: 0
  m_IgnoreNormalsForChartDetection: 0
  m_ImportantGI: 0
  m_StitchLightmapSeams: 0
  m_SelectedEditorRenderState: 3
  m_MinimumChartSize: 4
  m_AutoUVMaxDistance: 0.5
  m_AutoUVMaxAngle: 89
  m_LightmapParameters: {fileID: 0}
  m_SortingLayerID: 0
  m_SortingLayer: 0
  m_SortingOrder: 0
  m_AdditionalVertexStreams: {fileID: 0}
