%YAML 1.1
%TAG !u! tag:unity3d.com,2011:
--- !u!1 &5256219240222919096
GameObject:
  m_ObjectHideFlags: 0
  m_CorrespondingSourceObject: {fileID: 0}
  m_PrefabInstance: {fileID: 0}
  m_PrefabAsset: {fileID: 0}
  serializedVersion: 6
  m_Component:
  - component: {fileID: 8117435748623562172}
  - component: {fileID: 2200921641205358258}
  - component: {fileID: 2055945841152436153}
  m_Layer: 0
  m_Name: "\u934B\u5B50pro"
  m_TagString: Untagged
  m_Icon: {fileID: 0}
  m_NavMeshLayer: 0
  m_StaticEditorFlags: 0
  m_IsActive: 1
--- !u!4 &8117435748623562172
Transform:
  m_ObjectHideFlags: 0
  m_CorrespondingSourceObject: {fileID: 0}
  m_PrefabInstance: {fileID: 0}
  m_PrefabAsset: {fileID: 0}
  m_GameObject: {fileID: 5256219240222919096}
  m_LocalRotation: {x: -0, y: -0, z: -0, w: 1}
  m_LocalPosition: {x: 3.3349547, y: 1.3557001, z: 1.88}
  m_LocalScale: {x: 1, y: 1, z: 1}
  m_ConstrainProportionsScale: 0
  m_Children: []
  m_Father: {fileID: 0}
  m_RootOrder: 0
  m_LocalEulerAnglesHint: {x: 0, y: 0, z: 0}
--- !u!33 &2200921641205358258
MeshFilter:
  m_ObjectHideFlags: 0
  m_CorrespondingSourceObject: {fileID: 0}
  m_PrefabInstance: {fileID: 0}
  m_PrefabAsset: {fileID: 0}
  m_GameObject: {fileID: 5256219240222919096}
  m_Mesh: {fileID: 4300000, guid: e033d8df7e8a10b459c8551bc0e82b01, type: 3}
--- !u!23 &2055945841152436153
MeshRenderer:
  m_ObjectHideFlags: 0
  m_CorrespondingSourceObject: {fileID: 0}
  m_PrefabInstance: {fileID: 0}
  m_PrefabAsset: {fileID: 0}
  m_GameObject: {fileID: 5256219240222919096}
  m_Enabled: 1
  m_CastShadows: 1
  m_ReceiveShadows: 1
  m_DynamicOccludee: 1
  m_StaticShadowCaster: 0
  m_MotionVectors: 1
  m_LightProbeUsage: 1
  m_ReflectionProbeUsage: 1
  m_RayTracingMode: 2
  m_RayTraceProcedural: 0
  m_RenderingLayerMask: 1
  m_RendererPriority: 0
  m_Materials:
  - {fileID: 2100000, guid: 1cd4f6c504105c3468b812010080e6f8, type: 2}
  - {fileID: 2100000, guid: f98f9b60924d2e744af60fd18fc22ed0, type: 2}
  - {fileID: 2100000, guid: 0979759d2efea64459d45675ec0d746f, type: 2}
  - {fileID: 2100000, guid: 5574536b78f82c54bac4975d40991268, type: 2}
  - {fileID: 2100000, guid: 31e1e6eeb820a0f4ca327e5bd1aaea57, type: 2}
  - {fileID: 2100000, guid: d33745654a077c341bbae8463387db12, type: 2}
  - {fileID: 2100000, guid: adab69e738a4587408fb5b532f6aa296, type: 2}
  - {fileID: 2100000, guid: 6b5bc37832d16674db1371ed25cbb7e2, type: 2}
  - {fileID: 2100000, guid: 283eb1332c030024ba78938cd6b40489, type: 2}
  - {fileID: 2100000, guid: 492225d964abdc34c9701eccfc035eb5, type: 2}
  - {fileID: 2100000, guid: a8cb2b05e7cbbab4782a7695df900c45, type: 2}
  - {fileID: 2100000, guid: 7d2103e41f10e00409125094ecca47c9, type: 2}
  - {fileID: 2100000, guid: bdecb9ef156c70b468471aebe7b5edd9, type: 2}
  - {fileID: 2100000, guid: 3090632c2c9610749983045116724f88, type: 2}
  - {fileID: 2100000, guid: 3bcc1cc82970f5049afcdac8b17b7dd6, type: 2}
  - {fileID: 2100000, guid: 8ba35dbc6f4da2e4ba59fd97faae0507, type: 2}
  - {fileID: 2100000, guid: 77f800bd2ba80b9479171d0da418b20b, type: 2}
  - {fileID: 2100000, guid: 2767eb46147665c43b6bf6217653e84b, type: 2}
  - {fileID: 2100000, guid: 2921d520d77b39d41ae92bc32512b6e6, type: 2}
  - {fileID: 2100000, guid: f594811b92a11d64dbe6c9569dae9637, type: 2}
  - {fileID: 2100000, guid: f4c6324011d7b9749bb0289183764c15, type: 2}
  - {fileID: 2100000, guid: ced86083ea3bd3f4a9feffee5b743326, type: 2}
  - {fileID: 2100000, guid: 8c99c8acac3d42e4db6fa4b2cae4903d, type: 2}
  - {fileID: 2100000, guid: a74db72c31c79c04f99376945404502e, type: 2}
  m_StaticBatchInfo:
    firstSubMesh: 0
    subMeshCount: 0
  m_StaticBatchRoot: {fileID: 0}
  m_ProbeAnchor: {fileID: 0}
  m_LightProbeVolumeOverride: {fileID: 0}
  m_ScaleInLightmap: 1
  m_ReceiveGI: 1
  m_PreserveUVs: 0
  m_IgnoreNormalsForChartDetection: 0
  m_ImportantGI: 0
  m_StitchLightmapSeams: 0
  m_SelectedEditorRenderState: 3
  m_MinimumChartSize: 4
  m_AutoUVMaxDistance: 0.5
  m_AutoUVMaxAngle: 89
  m_LightmapParameters: {fileID: 0}
  m_SortingLayerID: 0
  m_SortingLayer: 0
  m_SortingOrder: 0
  m_AdditionalVertexStreams: {fileID: 0}
