%YAML 1.1
%TAG !u! tag:unity3d.com,2011:
--- !u!78 &1
TagManager:
  serializedVersion: 2
  tags:
  - CinemachineTarget
  - player timer
  - timer1
  - Test
  - cl
  - dl
  - ml
  - warning1
  - com
  - P2
  - card2
  - card3
  - card4
  - card5
  - "\u4FDD\u96AA\u7D72"
  - warning2
  - warrninggrid
  - "\u96FB\u9598"
  - FLESH
  - DOOR
  - Volume
  - Res
  - "\u96FB\u9598\u89F8\u767C"
  - fuse
  - fusepos
  - "\u9435\u6372\u9580"
  - Battery
  - Tur1
  - Tur2
  - warning3
  - warning4
  - warning5
  - Tur3
  - Tur4
  - Tur5
  - canbepick1
  - canbepick2
  - canbepick3
  - canbepick4
  - canbepick5
  - canbepick6
  - canbepick7
  - canbepick8
  - openeddoor
  - hide
  - Ground
  - objcontrol
  - Undefined
  - obj
  - EndDoor
  - BATTERYIMG
  - recoversta
  - savepickcon
  - Lefthand
  - Righthand
  - Flashlight
  - P3kind
  - Pad
  - Endroom
  - HeavensDoor
  - Watcher
  - Stash
  - stp
  - LockDoor
  - P3
  - P3_StashPoint
  - BadApsotle
  - WatcherLeave
  layers:
  - Default
  - TransparentFX
  - Ignore Raycast
  - 
  - Water
  - UI
  - Ground
  - Player
  - Light
  - Dark
  - savehouse
  - warning
  - pickup
  - OBJ
  - WALL
  - P3
  - "\u9435\u6372\u9580"
  - "\u969C\u7919\u7269"
  - handon
  - MAP
  - TallObs
  - Eleroom
  - DOOR
  - 
  - 
  - 
  - 
  - 
  - 
  - 
  - 
  - 
  m_SortingLayers:
  - name: Default
    uniqueID: 0
    locked: 0
