%YAML 1.1
%TAG !u! tag:unity3d.com,2011:
--- !u!1 &5293001635518331813
GameObject:
  m_ObjectHideFlags: 0
  m_CorrespondingSourceObject: {fileID: 0}
  m_PrefabInstance: {fileID: 0}
  m_PrefabAsset: {fileID: 0}
  serializedVersion: 6
  m_Component:
  - component: {fileID: 2607044123526521443}
  m_Layer: 0
  m_Name: p3 normal 3
  m_TagString: Untagged
  m_Icon: {fileID: 0}
  m_NavMeshLayer: 0
  m_StaticEditorFlags: 0
  m_IsActive: 1
--- !u!4 &2607044123526521443
Transform:
  m_ObjectHideFlags: 0
  m_CorrespondingSourceObject: {fileID: 0}
  m_PrefabInstance: {fileID: 0}
  m_PrefabAsset: {fileID: 0}
  m_GameObject: {fileID: 5293001635518331813}
  m_LocalRotation: {x: 0, y: 0, z: 0, w: 1}
  m_LocalPosition: {x: 0.021091461, y: 1.2971106, z: -0.10162234}
  m_LocalScale: {x: 1, y: 1, z: 1}
  m_Children:
  - {fileID: 7999530455325595352}
  m_Father: {fileID: 0}
  m_RootOrder: 0
  m_LocalEulerAnglesHint: {x: 0, y: 0, z: 0}
--- !u!95 &7534157061283393217
Animator:
  serializedVersion: 3
  m_ObjectHideFlags: 0
  m_CorrespondingSourceObject: {fileID: 0}
  m_PrefabInstance: {fileID: 0}
  m_PrefabAsset: {fileID: 0}
  m_GameObject: {fileID: 7228235879480396898}
  m_Enabled: 1
  m_Avatar: {fileID: 0}
  m_Controller: {fileID: 9100000, guid: fb1f602951eea5e448a62efc30a6e9bf, type: 2}
  m_CullingMode: 0
  m_UpdateMode: 0
  m_ApplyRootMotion: 0
  m_LinearVelocityBlending: 0
  m_WarningMessage: 
  m_HasTransformHierarchy: 1
  m_AllowConstantClipSamplingOptimization: 1
  m_KeepAnimatorControllerStateOnDisable: 0
--- !u!1001 &7534157059963793715
PrefabInstance:
  m_ObjectHideFlags: 0
  serializedVersion: 2
  m_Modification:
    m_TransformParent: {fileID: 2607044123526521443}
    m_Modifications:
    - target: {fileID: -8679921383154817045, guid: 0780ac064185d5c499709463dc842cab, type: 3}
      propertyPath: m_RootOrder
      value: 0
      objectReference: {fileID: 0}
    - target: {fileID: -8679921383154817045, guid: 0780ac064185d5c499709463dc842cab, type: 3}
      propertyPath: m_LocalPosition.x
      value: -0.021091461
      objectReference: {fileID: 0}
    - target: {fileID: -8679921383154817045, guid: 0780ac064185d5c499709463dc842cab, type: 3}
      propertyPath: m_LocalPosition.y
      value: -1.0971105
      objectReference: {fileID: 0}
    - target: {fileID: -8679921383154817045, guid: 0780ac064185d5c499709463dc842cab, type: 3}
      propertyPath: m_LocalPosition.z
      value: 0.10162234
      objectReference: {fileID: 0}
    - target: {fileID: -8679921383154817045, guid: 0780ac064185d5c499709463dc842cab, type: 3}
      propertyPath: m_LocalRotation.w
      value: 1
      objectReference: {fileID: 0}
    - target: {fileID: -8679921383154817045, guid: 0780ac064185d5c499709463dc842cab, type: 3}
      propertyPath: m_LocalRotation.x
      value: -0
      objectReference: {fileID: 0}
    - target: {fileID: -8679921383154817045, guid: 0780ac064185d5c499709463dc842cab, type: 3}
      propertyPath: m_LocalRotation.y
      value: -0
      objectReference: {fileID: 0}
    - target: {fileID: -8679921383154817045, guid: 0780ac064185d5c499709463dc842cab, type: 3}
      propertyPath: m_LocalRotation.z
      value: -0
      objectReference: {fileID: 0}
    - target: {fileID: -8679921383154817045, guid: 0780ac064185d5c499709463dc842cab, type: 3}
      propertyPath: m_LocalEulerAnglesHint.x
      value: 0
      objectReference: {fileID: 0}
    - target: {fileID: -8679921383154817045, guid: 0780ac064185d5c499709463dc842cab, type: 3}
      propertyPath: m_LocalEulerAnglesHint.y
      value: 0
      objectReference: {fileID: 0}
    - target: {fileID: -8679921383154817045, guid: 0780ac064185d5c499709463dc842cab, type: 3}
      propertyPath: m_LocalEulerAnglesHint.z
      value: 0
      objectReference: {fileID: 0}
    - target: {fileID: 919132149155446097, guid: 0780ac064185d5c499709463dc842cab, type: 3}
      propertyPath: m_Name
      value: P3
      objectReference: {fileID: 0}
    m_RemovedComponents: []
  m_SourcePrefab: {fileID: 100100000, guid: 0780ac064185d5c499709463dc842cab, type: 3}
--- !u!1 &7228235879480396898 stripped
GameObject:
  m_CorrespondingSourceObject: {fileID: 919132149155446097, guid: 0780ac064185d5c499709463dc842cab, type: 3}
  m_PrefabInstance: {fileID: 7534157059963793715}
  m_PrefabAsset: {fileID: 0}
--- !u!4 &7999530455325595352 stripped
Transform:
  m_CorrespondingSourceObject: {fileID: -8679921383154817045, guid: 0780ac064185d5c499709463dc842cab, type: 3}
  m_PrefabInstance: {fileID: 7534157059963793715}
  m_PrefabAsset: {fileID: 0}
